{
  "formatVersion": 1,
  "database": {
    "version": 17,
    "identityHash": "434b2ee84598dfb2516beca4f7a83af6",
    "entities": [
      {
        "tableName": "time",
        "createSql": "CREATE TABLE IF NOT EXISTS `${TABLE_NAME}` (`id` INTEGER PRIMARY KEY AUTOINCREMENT NOT NULL, `s` INTEGER NOT NULL, `ms` INTEGER NOT NULL, `cones` INTEGER NOT NULL, `timecourse` INTEGER NOT NULL, `created` INTEGER NOT NULL, `timelabel` INTEGER, `userid` INTEGER NOT NULL, `serverId` INTEGER, FOREIGN KEY(`timecourse`) REFERENCES `course`(`id`) ON UPDATE NO ACTION ON DELETE CASCADE , FOREIGN KEY(`timelabel`) REFERENCES `label`(`id`) ON UPDATE NO ACTION ON DELETE NO ACTION , FOREIGN KEY(`userid`) REFERENCES `user`(`id`) ON UPDATE NO ACTION ON DELETE NO ACTION )",
        "fields": [
          {
            "fieldPath": "id",
            "columnName": "id",
            "affinity": "INTEGER",
            "notNull": true
          },
          {
            "fieldPath": "s",
            "columnName": "s",
            "affinity": "INTEGER",
            "notNull": true
          },
          {
            "fieldPath": "ms",
            "columnName": "ms",
            "affinity": "INTEGER",
            "notNull": true
          },
          {
            "fieldPath": "cones",
            "columnName": "cones",
            "affinity": "INTEGER",
            "notNull": true
          },
          {
            "fieldPath": "timecourse",
            "columnName": "timecourse",
            "affinity": "INTEGER",
            "notNull": true
          },
          {
            "fieldPath": "created",
            "columnName": "created",
            "affinity": "INTEGER",
            "notNull": true
          },
          {
            "fieldPath": "timelabel",
            "columnName": "timelabel",
            "affinity": "INTEGER",
            "notNull": false
          },
          {
            "fieldPath": "userid",
            "columnName": "userid",
            "affinity": "INTEGER",
            "notNull": true
          },
          {
            "fieldPath": "serverId",
            "columnName": "serverId",
            "affinity": "INTEGER",
            "notNull": false
          }
        ],
        "primaryKey": {
          "columnNames": [
            "id"
          ],
          "autoGenerate": true
        },
        "indices": [
          {
            "name": "timecourse_idx",
            "unique": false,
            "columnNames": [
              "timecourse"
            ],
            "createSql": "CREATE INDEX IF NOT EXISTS `timecourse_idx` ON `${TABLE_NAME}` (`timecourse`)"
          }
        ],
        "foreignKeys": [
          {
            "table": "course",
            "onDelete": "CASCADE",
            "onUpdate": "NO ACTION",
            "columns": [
              "timecourse"
            ],
            "referencedColumns": [
              "id"
            ]
          },
          {
            "table": "label",
            "onDelete": "NO ACTION",
            "onUpdate": "NO ACTION",
            "columns": [
              "timelabel"
            ],
            "referencedColumns": [
              "id"
            ]
          },
          {
            "table": "user",
            "onDelete": "NO ACTION",
            "onUpdate": "NO ACTION",
            "columns": [
              "userid"
            ],
            "referencedColumns": [
              "id"
            ]
          }
        ]
      },
      {
        "tableName": "spot",
        "createSql": "CREATE TABLE IF NOT EXISTS `${TABLE_NAME}` (`id` INTEGER PRIMARY KEY AUTOINCREMENT NOT NULL, `name` TEXT NOT NULL, `serverId` INTEGER, `desc` TEXT)",
        "fields": [
          {
            "fieldPath": "id",
            "columnName": "id",
            "affinity": "INTEGER",
            "notNull": true
          },
          {
            "fieldPath": "name",
            "columnName": "name",
            "affinity": "TEXT",
            "notNull": true
          },
          {
            "fieldPath": "serverId",
            "columnName": "serverId",
            "affinity": "INTEGER",
            "notNull": false
          },
          {
            "fieldPath": "desc",
            "columnName": "desc",
            "affinity": "TEXT",
            "notNull": false
          }
        ],
        "primaryKey": {
          "columnNames": [
            "id"
          ],
          "autoGenerate": true
        },
        "indices": [],
        "foreignKeys": []
      },
      {
        "tableName": "course",
        "createSql": "CREATE TABLE IF NOT EXISTS `${TABLE_NAME}` (`id` INTEGER PRIMARY KEY AUTOINCREMENT NOT NULL, `name` TEXT NOT NULL, `coursespot` INTEGER NOT NULL, `penalty` INTEGER NOT NULL, `coursebestrun` INTEGER, `coursebestruncones` INTEGER, `serverId` INTEGER, `desc` TEXT, FOREIGN KEY(`coursespot`) REFERENCES `spot`(`id`) ON UPDATE NO ACTION ON DELETE CASCADE , FOREIGN KEY(`coursebestrun`) REFERENCES `time`(`id`) ON UPDATE NO ACTION ON DELETE NO ACTION , FOREIGN KEY(`coursebestruncones`) REFERENCES `time`(`id`) ON UPDATE NO ACTION ON DELETE NO ACTION )",
        "fields": [
          {
            "fieldPath": "id",
            "columnName": "id",
            "affinity": "INTEGER",
            "notNull": true
          },
          {
            "fieldPath": "name",
            "columnName": "name",
            "affinity": "TEXT",
            "notNull": true
          },
          {
            "fieldPath": "coursespot",
            "columnName": "coursespot",
            "affinity": "INTEGER",
            "notNull": true
          },
          {
            "fieldPath": "penalty",
            "columnName": "penalty",
            "affinity": "INTEGER",
            "notNull": true
          },
          {
            "fieldPath": "coursebestrun",
            "columnName": "coursebestrun",
            "affinity": "INTEGER",
            "notNull": false
          },
          {
            "fieldPath": "coursebestruncones",
            "columnName": "coursebestruncones",
            "affinity": "INTEGER",
            "notNull": false
          },
          {
            "fieldPath": "serverId",
            "columnName": "serverId",
            "affinity": "INTEGER",
            "notNull": false
          },
          {
            "fieldPath": "desc",
            "columnName": "desc",
            "affinity": "TEXT",
            "notNull": false
          }
        ],
        "primaryKey": {
          "columnNames": [
            "id"
          ],
          "autoGenerate": true
        },
        "indices": [
          {
            "name": "coursespot_idx",
            "unique": false,
            "columnNames": [
              "coursespot"
            ],
            "createSql": "CREATE INDEX IF NOT EXISTS `coursespot_idx` ON `${TABLE_NAME}` (`coursespot`)"
          }
        ],
        "foreignKeys": [
          {
            "table": "spot",
            "onDelete": "CASCADE",
            "onUpdate": "NO ACTION",
            "columns": [
              "coursespot"
            ],
            "referencedColumns": [
              "id"
            ]
          },
          {
            "table": "time",
            "onDelete": "NO ACTION",
            "onUpdate": "NO ACTION",
            "columns": [
              "coursebestrun"
            ],
            "referencedColumns": [
              "id"
            ]
          },
          {
            "table": "time",
            "onDelete": "NO ACTION",
            "onUpdate": "NO ACTION",
            "columns": [
              "coursebestruncones"
            ],
            "referencedColumns": [
              "id"
            ]
          }
        ]
      },
      {
        "tableName": "unparsed",
        "createSql": "CREATE TABLE IF NOT EXISTS `${TABLE_NAME}` (`id` INTEGER PRIMARY KEY AUTOINCREMENT NOT NULL, `data` TEXT NOT NULL, `unparsedcourse` INTEGER, `created` INTEGER NOT NULL, `userid` INTEGER NOT NULL, FOREIGN KEY(`unparsedcourse`) REFERENCES `course`(`id`) ON UPDATE NO ACTION ON DELETE CASCADE , FOREIGN KEY(`userid`) REFERENCES `user`(`id`) ON UPDATE NO ACTION ON DELETE NO ACTION )",
        "fields": [
          {
            "fieldPath": "id",
            "columnName": "id",
            "affinity": "INTEGER",
            "notNull": true
          },
          {
            "fieldPath": "data",
            "columnName": "data",
            "affinity": "TEXT",
            "notNull": true
          },
          {
            "fieldPath": "unparsedcourse",
            "columnName": "unparsedcourse",
            "affinity": "INTEGER",
            "notNull": false
          },
          {
            "fieldPath": "created",
            "columnName": "created",
            "affinity": "INTEGER",
            "notNull": true
          },
          {
            "fieldPath": "userid",
            "columnName": "userid",
            "affinity": "INTEGER",
            "notNull": true
          }
        ],
        "primaryKey": {
          "columnNames": [
            "id"
          ],
          "autoGenerate": true
        },
        "indices": [
          {
            "name": "unparsedcourse_idx",
            "unique": false,
            "columnNames": [
              "unparsedcourse"
            ],
            "createSql": "CREATE INDEX IF NOT EXISTS `unparsedcourse_idx` ON `${TABLE_NAME}` (`unparsedcourse`)"
          }
        ],
        "foreignKeys": [
          {
            "table": "course",
            "onDelete": "CASCADE",
            "onUpdate": "NO ACTION",
            "columns": [
              "unparsedcourse"
            ],
            "referencedColumns": [
              "id"
            ]
          },
          {
            "table": "user",
            "onDelete": "NO ACTION",
            "onUpdate": "NO ACTION",
            "columns": [
              "userid"
            ],
            "referencedColumns": [
              "id"
            ]
          }
        ]
      },
      {
        "tableName": "label",
        "createSql": "CREATE TABLE IF NOT EXISTS `${TABLE_NAME}` (`id` INTEGER PRIMARY KEY AUTOINCREMENT NOT NULL, `data` TEXT NOT NULL, `labelcourse` INTEGER, `created` INTEGER NOT NULL, FOREIGN KEY(`labelcourse`) REFERENCES `course`(`id`) ON UPDATE NO ACTION ON DELETE CASCADE )",
        "fields": [
          {
            "fieldPath": "id",
            "columnName": "id",
            "affinity": "INTEGER",
            "notNull": true
          },
          {
            "fieldPath": "data",
            "columnName": "data",
            "affinity": "TEXT",
            "notNull": true
          },
          {
            "fieldPath": "labelcourse",
            "columnName": "labelcourse",
            "affinity": "INTEGER",
            "notNull": false
          },
          {
            "fieldPath": "created",
            "columnName": "created",
            "affinity": "INTEGER",
            "notNull": true
          }
        ],
        "primaryKey": {
          "columnNames": [
            "id"
          ],
          "autoGenerate": true
        },
        "indices": [
          {
            "name": "labelcourse_idx",
            "unique": false,
            "columnNames": [
              "labelcourse"
            ],
            "createSql": "CREATE INDEX IF NOT EXISTS `labelcourse_idx` ON `${TABLE_NAME}` (`labelcourse`)"
          }
        ],
        "foreignKeys": [
          {
            "table": "course",
            "onDelete": "CASCADE",
            "onUpdate": "NO ACTION",
            "columns": [
              "labelcourse"
            ],
            "referencedColumns": [
              "id"
            ]
          }
        ]
      },
      {
        "tableName": "place",
        "createSql": "CREATE TABLE IF NOT EXISTS `${TABLE_NAME}` (`id` INTEGER PRIMARY KEY AUTOINCREMENT NOT NULL, `desc` TEXT NOT NULL, `lat` REAL NOT NULL, `lon` REAL NOT NULL, `spotId` INTEGER NOT NULL, FOREIGN KEY(`spotId`) REFERENCES `spot`(`id`) ON UPDATE NO ACTION ON DELETE CASCADE )",
        "fields": [
          {
            "fieldPath": "id",
            "columnName": "id",
            "affinity": "INTEGER",
            "notNull": true
          },
          {
            "fieldPath": "desc",
            "columnName": "desc",
            "affinity": "TEXT",
            "notNull": true
          },
          {
            "fieldPath": "lat",
            "columnName": "lat",
            "affinity": "REAL",
            "notNull": true
          },
          {
            "fieldPath": "lon",
            "columnName": "lon",
            "affinity": "REAL",
            "notNull": true
          },
          {
            "fieldPath": "spotId",
            "columnName": "spotId",
            "affinity": "INTEGER",
            "notNull": true
          }
        ],
        "primaryKey": {
          "columnNames": [
            "id"
          ],
          "autoGenerate": true
        },
        "indices": [
          {
            "name": "spotId_idx",
            "unique": false,
            "columnNames": [
              "spotId"
            ],
            "createSql": "CREATE INDEX IF NOT EXISTS `spotId_idx` ON `${TABLE_NAME}` (`spotId`)"
          }
        ],
        "foreignKeys": [
          {
            "table": "spot",
            "onDelete": "CASCADE",
            "onUpdate": "NO ACTION",
            "columns": [
              "spotId"
            ],
            "referencedColumns": [
              "id"
            ]
          }
        ]
      },
      {
        "tableName": "user",
        "createSql": "CREATE TABLE IF NOT EXISTS `${TABLE_NAME}` (`id` INTEGER PRIMARY KEY AUTOINCREMENT NOT NULL, `name` TEXT NOT NULL, `email` TEXT NOT NULL, `serverId` INTEGER, `logged` INTEGER NOT NULL)",
        "fields": [
          {
            "fieldPath": "id",
            "columnName": "id",
            "affinity": "INTEGER",
            "notNull": true
          },
          {
            "fieldPath": "name",
            "columnName": "name",
            "affinity": "TEXT",
            "notNull": true
          },
          {
            "fieldPath": "email",
            "columnName": "email",
            "affinity": "TEXT",
            "notNull": true
          },
          {
            "fieldPath": "serverId",
            "columnName": "serverId",
            "affinity": "INTEGER",
            "notNull": false
          },
          {
            "fieldPath": "logged",
            "columnName": "logged",
            "affinity": "INTEGER",
            "notNull": true
          }
        ],
        "primaryKey": {
          "columnNames": [
            "id"
          ],
          "autoGenerate": true
        },
        "indices": [],
        "foreignKeys": []
      }
    ],
    "views": [],
    "setupQueries": [
      "CREATE TABLE IF NOT EXISTS room_master_table (id INTEGER PRIMARY KEY,identity_hash TEXT)",
      "INSERT OR REPLACE INTO room_master_table (id,identity_hash) VALUES(42, '434b2ee84598dfb2516beca4f7a83af6')"
    ]
  }
}