{
  "formatVersion": 1,
  "database": {
    "version": 1,
    "identityHash": "e8ac7af1f74ef0711b712208bc5419b4",
    "entities": [
      {
        "tableName": "times",
        "createSql": "CREATE TABLE IF NOT EXISTS `${TABLE_NAME}` (`_id` INTEGER NOT NULL, `time_s` INTEGER NOT NULL, `time_ms` INTEGER NOT NULL, `cones` INTEGER NOT NULL, `cour` INTEGER NOT NULL, `created` INTEGER NOT NULL, PRIMARY KEY(`_id`))",
        "fields": [
          {
            "fieldPath": "id",
            "columnName": "_id",
            "affinity": "INTEGER",
            "notNull": true
          },
          {
            "fieldPath": "s",
            "columnName": "time_s",
            "affinity": "INTEGER",
            "notNull": true
          },
          {
            "fieldPath": "ms",
            "columnName": "time_ms",
            "affinity": "INTEGER",
            "notNull": true
          },
          {
            "fieldPath": "cones",
            "columnName": "cones",
            "affinity": "INTEGER",
            "notNull": true
          },
          {
            "fieldPath": "cour",
            "columnName": "cour",
            "affinity": "INTEGER",
            "notNull": true
          },
          {
            "fieldPath": "date",
            "columnName": "created",
            "affinity": "INTEGER",
            "notNull": true
          }
        ],
        "primaryKey": {
          "columnNames": [
            "_id"
          ],
          "autoGenerate": false
        },
        "indices": [],
        "foreignKeys": []
      }
    ],
    "views": [],
    "setupQueries": [
      "CREATE TABLE IF NOT EXISTS room_master_table (id INTEGER PRIMARY KEY,identity_hash TEXT)",
      "INSERT OR REPLACE INTO room_master_table (id,identity_hash) VALUES(42, \"e8ac7af1f74ef0711b712208bc5419b4\")"
    ]
  }
}